<?xml version="1.0" encoding="UTF-8"?>
<svg version="1.1" xmlns="http://www.w3.org/2000/svg" width="512" height="512">
<path d="M0 0 C0.8156543 0.19867676 1.63130859 0.39735352 2.47167969 0.60205078 C49.47202711 12.32141272 90.6908117 40.17190795 116.15722656 81.89599609 C118.90565848 86.5263308 121.49274617 91.23527515 124 96 C124.31710937 96.60005859 124.63421875 97.20011719 124.9609375 97.81835938 C144.22487008 134.90554581 148.4451459 179.23566398 136.01829529 218.96862793 C130.83709997 235.21459197 124.553968 250.70213855 117 266 C115.9693227 268.13636702 114.93939612 270.27309635 113.91015625 272.41015625 C107.1094973 286.3947708 99.66240019 299.89457358 91.66259766 313.22607422 C90.10030852 315.83264237 88.55351045 318.44767691 87.01171875 321.06640625 C76.10852041 339.51429412 64.57516329 357.59802255 52.28564453 375.15380859 C50.95855063 377.05952149 49.64718607 378.97522118 48.33984375 380.89453125 C36.98043103 397.56430527 25.01591161 413.79975692 13 430 C12.4858252 430.69335449 11.97165039 431.38670898 11.44189453 432.10107422 C0.7557475 446.48720838 -10.17408482 460.68464738 -21.56225586 474.5234375 C-24.74165806 478.39770336 -27.76945556 482.34726655 -30.703125 486.41162109 C-32 488 -32 488 -34 489 C-41.0702705 489.69031418 -41.0702705 489.69031418 -44.73046875 486.97265625 C-45.54128906 486.01230469 -46.35210937 485.05195313 -47.1875 484.0625 C-47.64326416 483.53180908 -48.09902832 483.00111816 -48.56860352 482.4543457 C-53.52667514 476.58781014 -58.13723606 470.42394225 -62.75 464.28515625 C-65.73018017 460.32898478 -68.81582399 456.46982013 -71.9375 452.625 C-78.29129256 444.75864978 -84.25134739 436.61639038 -90.20898438 428.44824219 C-91.9900184 426.01364443 -93.78191174 423.5874781 -95.578125 421.1640625 C-122.2851867 385.12438073 -147.59885556 347.87840133 -170 309 C-170.5671875 308.01660645 -171.134375 307.03321289 -171.71875 306.02001953 C-202.59177858 252.25925742 -230.05203618 195.31641478 -213.75 132.25 C-205.30625377 101.69457298 -190.44488284 75.27469832 -169 52 C-168.15695313 51.08476563 -167.31390625 50.16953125 -166.4453125 49.2265625 C-142.1821756 24.00881038 -109.79366629 7.87958961 -76 0 C-75.00371582 -0.24556641 -75.00371582 -0.24556641 -73.98730469 -0.49609375 C-51.34720417 -5.85968095 -22.54982821 -5.67570303 0 0 Z M-152 59 C-152.95648438 59.89203125 -153.91296875 60.7840625 -154.8984375 61.703125 C-184.80372516 90.16294208 -201.40824439 131.6335784 -202.9765625 172.52294922 C-203.61974477 202.94202495 -190.91534509 232.10813802 -178 259 C-177.33460205 260.39653809 -177.33460205 260.39653809 -176.65576172 261.82128906 C-169.9952556 275.7354447 -162.49673093 289.05731455 -154.60009766 302.30371094 C-153.19914233 304.66442968 -151.81761736 307.0343826 -150.44921875 309.4140625 C-133.98962789 337.98173989 -115.05959353 365.12427643 -96 392 C-95.46987305 392.74765625 -94.93974609 393.4953125 -94.39355469 394.265625 C-86.08999883 405.94265991 -77.45341522 417.34994291 -68.73876953 428.72216797 C-66.53323088 431.61147934 -64.35786318 434.52168113 -62.1875 437.4375 C-54.68924774 447.46855884 -46.84746739 457.24125831 -39 467 C-34.67938532 465.44174553 -32.40129008 462.13209379 -29.6875 458.625 C-29.1733252 457.97160645 -28.65915039 457.31821289 -28.12939453 456.64501953 C-22.48150004 449.42425112 -17.00876401 442.06898449 -11.53125 434.71875 C-8.68587993 430.90474331 -5.79635903 427.13103304 -2.875 423.375 C2.12944979 416.89816663 6.91163388 410.26927446 11.6796875 403.6171875 C13.74809516 400.73195643 15.83328528 397.86125076 17.9453125 395.0078125 C27.77678947 381.66995921 36.8701487 367.83712004 46.01040649 354.021698 C48.66194912 350.0141806 51.32559541 346.01509328 53.99890137 342.02206421 C71.80448849 315.40929021 87.65176146 287.61578899 102 259 C102.62044189 257.76515869 102.62044189 257.76515869 103.25341797 256.50537109 C124.02892214 214.80006673 133.58885897 172.70019969 119.13183594 127.27197266 C110.86692738 102.84973755 98.04221735 81.43274153 80 63 C79.11699219 62.06671875 78.23398437 61.1334375 77.32421875 60.171875 C48.48729257 30.29164469 6.93703519 13.50791247 -34.32177734 12.71435547 C-79.07300413 12.35728054 -119.53808964 28.24661124 -152 59 Z " fill="#000000" transform="translate(294,13)"/>
<path d="M0 0 C17.17505204 14.88186011 28.93065759 36.87056636 31.05859375 59.62109375 C32.60326937 84.54025761 26.32637918 108.26624456 10.05859375 127.62109375 C9.46433594 128.36101562 8.87007812 129.1009375 8.2578125 129.86328125 C2.96010504 136.20298086 -3.1614667 140.94160606 -9.94140625 145.62109375 C-10.73160156 146.17796875 -11.52179688 146.73484375 -12.3359375 147.30859375 C-31.65317176 159.94542161 -57.53227739 162.80264486 -79.86376953 158.64477539 C-103.50514901 153.23423919 -124.11813184 138.65850203 -137.19140625 118.30859375 C-150.00265396 96.46476937 -154.28187069 72.23775 -148.98046875 47.46484375 C-142.42094657 23.19954367 -127.42208622 2.42971891 -105.63256836 -10.32324219 C-99.63219343 -13.69128764 -93.51765391 -16.3288535 -86.94140625 -18.37890625 C-85.94882813 -18.69730469 -84.95625 -19.01570313 -83.93359375 -19.34375 C-54.03584398 -27.31403464 -23.59814292 -19.08535065 0 0 Z M-109.94140625 13.62109375 C-110.62589844 14.21277344 -111.31039062 14.80445313 -112.015625 15.4140625 C-126.20876268 28.4918259 -133.97807621 47.57525605 -134.94140625 66.62109375 C-135.28595933 86.88512179 -128.21446509 104.47716567 -114.94140625 119.62109375 C-114.33683594 120.32105469 -113.73226562 121.02101563 -113.109375 121.7421875 C-101.051954 134.76420218 -82.28788559 142.84997279 -64.6796875 143.94140625 C-43.76833554 144.72807571 -24.46455656 137.78307229 -8.94140625 123.62109375 C-8.33296875 123.10417969 -7.72453125 122.58726562 -7.09765625 122.0546875 C2.31819889 113.51621886 8.22314076 101.53203638 12.05859375 89.62109375 C12.29191406 88.94046875 12.52523437 88.25984375 12.765625 87.55859375 C18.29290505 69.10781719 14.1957266 49.17823126 5.42578125 32.51953125 C1.40247395 25.87639594 -3.5132613 20.15380892 -8.94140625 14.62109375 C-9.54339844 13.99460937 -10.14539063 13.368125 -10.765625 12.72265625 C-24.92247538 -0.85072307 -44.98402346 -5.97528957 -64.0703125 -5.65234375 C-81.46902443 -4.95404456 -97.04841409 1.99256317 -109.94140625 13.62109375 Z " fill="#000000" transform="translate(315.94140625,121.37890625)"/>
</svg>
