<?xml version="1.0" encoding="UTF-8"?>
<svg version="1.1" xmlns="http://www.w3.org/2000/svg" width="49" height="48">
<path d="M0 0 C16.17 0 32.34 0 49 0 C49 15.84 49 31.68 49 48 C32.83 48 16.66 48 0 48 C0 32.16 0 16.32 0 0 Z " fill="#292D3F" transform="translate(0,0)"/>
<path d="M0 0 C4.50626492 1.66020286 4.50626492 1.66020286 6.375 3.875 C6.71378788 6.90258055 6.60392133 9.84179232 6.375 12.875 C4.065 14.195 1.755 15.515 -0.625 16.875 C-0.6520043 18.33323212 -0.67139787 19.79160675 -0.6875 21.25 C-0.69910156 22.06210937 -0.71070312 22.87421875 -0.72265625 23.7109375 C-0.76966334 25.92437142 -0.76966334 25.92437142 0.375 27.875 C-8.535 27.875 -17.445 27.875 -26.625 27.875 C-26.625 27.215 -26.625 26.555 -26.625 25.875 C-25.965 25.875 -25.305 25.875 -24.625 25.875 C-24.625 22.245 -24.625 18.615 -24.625 14.875 C-25.285 14.875 -25.945 14.875 -26.625 14.875 C-26.48392253 13.41619891 -26.33697585 11.95796449 -26.1875 10.5 C-26.10628906 9.68789063 -26.02507813 8.87578125 -25.94140625 8.0390625 C-25.625 5.875 -25.625 5.875 -24.625 3.875 C-21.33628366 3.57533611 -18.09046302 3.45953114 -14.79101562 3.39648438 C-9.43259449 3.19362633 -4.95308914 -0.23586139 0 0 Z " fill="#E34F60" transform="translate(34.625,8.125)"/>
<path d="M0 0 C0.70769531 -0.00386719 1.41539063 -0.00773437 2.14453125 -0.01171875 C5.93048044 -0.00466857 9.44539237 0.21592047 13.125 1.125 C13.11339844 1.82367187 13.10179688 2.52234375 13.08984375 3.2421875 C13.08082031 4.15226562 13.07179688 5.06234375 13.0625 6 C13.05089844 6.90492187 13.03929688 7.80984375 13.02734375 8.7421875 C12.96250743 11.1418585 12.96250743 11.1418585 14.125 13.125 C5.215 13.125 -3.695 13.125 -12.875 13.125 C-12.875 12.465 -12.875 11.805 -12.875 11.125 C-12.215 11.125 -11.555 11.125 -10.875 11.125 C-10.875 7.825 -10.875 4.525 -10.875 1.125 C-7.2062349 -0.0979217 -3.8180531 -0.02063812 0 0 Z " fill="#2C2F42" transform="translate(20.875,22.875)"/>
<path d="M0 0 C0.66 0 1.32 0 2 0 C2 2.97 2 5.94 2 9 C3.32 9 4.64 9 6 9 C6 8.01 6 7.02 6 6 C5.34 6 4.68 6 4 6 C4 5.01 4 4.02 4 3 C4.66 3 5.32 3 6 3 C6 2.01 6 1.02 6 0 C6.66 0 7.32 0 8 0 C8 2.97 8 5.94 8 9 C11.96 9 15.92 9 20 9 C20 6.03 20 3.06 20 0 C20.66 0 21.32 0 22 0 C22 2.97 22 5.94 22 9 C22.99 9.33 23.98 9.66 25 10 C25 10.33 25 10.66 25 11 C16.09 11 7.18 11 -2 11 C-2 10.34 -2 9.68 -2 9 C-1.34 9 -0.68 9 0 9 C0 6.03 0 3.06 0 0 Z " fill="#E7E7E9" transform="translate(10,25)"/>
<path d="M0 0 C3.3 0 6.6 0 10 0 C10 0.66 10 1.32 10 2 C10.66 2 11.32 2 12 2 C12 4.64 12 7.28 12 10 C8.69486514 10 6.18902405 9.63780481 3 9 C1.68 9 0.36 9 -1 9 C-0.4740625 7.329375 -0.4740625 7.329375 0.0625 5.625 C1.37239331 2.19735524 1.37239331 2.19735524 0 0 Z " fill="#A2A3AB" transform="translate(10,12)"/>
<path d="M0 0 C1.98 0 3.96 0 6 0 C6 0.66 6 1.32 6 2 C5.34 2 4.68 2 4 2 C4.33 4.31 4.66 6.62 5 9 C7.31 9.66 9.62 10.32 12 11 C9.18009247 11.79967527 6.67013128 12.12822838 3.7421875 12.1328125 C2.95199219 12.13410156 2.16179688 12.13539062 1.34765625 12.13671875 C0.53167969 12.13285156 -0.28429688 12.12898438 -1.125 12.125 C-2.36056641 12.13080078 -2.36056641 12.13080078 -3.62109375 12.13671875 C-9.7466133 12.12669335 -9.7466133 12.12669335 -12 11 C-11.67 8.03 -11.34 5.06 -11 2 C-10.01 2 -9.02 2 -8 2 C-8.66 4.31 -9.32 6.62 -10 9 C-9.34 9 -8.68 9 -8 9 C-7.34 8.34 -6.68 7.68 -6 7 C-6 7.99 -6 8.98 -6 10 C-4.68 10 -3.36 10 -2 10 C-2 7.69 -2 5.38 -2 3 C-1.67 3 -1.34 3 -1 3 C-0.87625 3.969375 -0.7525 4.93875 -0.625 5.9375 C-0.41875 6.948125 -0.2125 7.95875 0 9 C0.66 9.33 1.32 9.66 2 10 C2 7.36 2 4.72 2 2 C1.34 2 0.68 2 0 2 C0 1.34 0 0.68 0 0 Z " fill="#DFD8DB" transform="translate(20,12)"/>
<path d="M0 0 C-0.33 3.63 -0.66 7.26 -1 11 C-1.33 11 -1.66 11 -2 11 C-2 8.03 -2 5.06 -2 2 C-2.66 2 -3.32 2 -4 2 C-4 2.99 -4 3.98 -4 5 C-4.66 5 -5.32 5 -6 5 C-6 5.99 -6 6.98 -6 8 C-5.34 8 -4.68 8 -4 8 C-4 8.99 -4 9.98 -4 11 C-5.32 11 -6.64 11 -8 11 C-8 8.03 -8 5.06 -8 2 C-8.66 1.67 -9.32 1.34 -10 1 C-6.52674819 -0.1577506 -3.63932552 -0.06866652 0 0 Z " fill="#3B3E50" transform="translate(20,23)"/>
<path d="M0 0 C0.66 0.33 1.32 0.66 2 1 C1.34 3.31 0.68 5.62 0 8 C0.66 8 1.32 8 2 8 C2.66 7.34 3.32 6.68 4 6 C4 6.99 4 7.98 4 9 C5.32 9 6.64 9 8 9 C8 6.69 8 4.38 8 2 C8.33 2 8.66 2 9 2 C9.66 4.64 10.32 7.28 11 10 C2.57142857 11.28571429 2.57142857 11.28571429 -2 10 C-1.85950482 8.52031676 -1.71245174 7.04125484 -1.5625 5.5625 C-1.48128906 4.73878906 -1.40007813 3.91507813 -1.31640625 3.06640625 C-1 1 -1 1 0 0 Z " fill="#EBEBED" transform="translate(10,13)"/>
<path d="M0 0 C0.66 0 1.32 0 2 0 C2 2.97 2 5.94 2 9 C2.99 9.33 3.98 9.66 5 10 C5 10.33 5 10.66 5 11 C-0.61 10.67 -6.22 10.34 -12 10 C-12 9.67 -12 9.34 -12 9 C-8.04 9 -4.08 9 0 9 C0 6.03 0 3.06 0 0 Z " fill="#CFD0D4" transform="translate(30,25)"/>
<path d="M0 0 C0.33 0.66 0.66 1.32 1 2 C2.32 2 3.64 2 5 2 C5 3.65 5 5.3 5 7 C3.02 7 1.04 7 -1 7 C-0.67 4.69 -0.34 2.38 0 0 Z " fill="#FDD5D9" transform="translate(31,13)"/>
<path d="M0 0 C0.99 0 1.98 0 3 0 C2.67 2.31 2.34 4.62 2 7 C0.68 7 -0.64 7 -2 7 C-1.34 4.69 -0.68 2.38 0 0 Z " fill="#3E4253" transform="translate(11,14)"/>
<path d="M0 0 C0.99 0 1.98 0 3 0 C3 2.64 3 5.28 3 8 C2.01 8 1.02 8 0 8 C0 5.36 0 2.72 0 0 Z " fill="#424656" transform="translate(15,14)"/>
</svg>
